<svg xmlns="http://www.w3.org/2000/svg" width="38" height="38" viewBox="0 0 38 38">
  <path fill="#154889" d="M82.5,1507.53L66,1523l-7.5-7.5,3.536-3.54,4.08,4.08,12.966-12.15Z" transform="translate(-51.5 -1494.44)"/>
</svg>
