<svg xmlns="http://www.w3.org/2000/svg" viewBox="0 0 115 80">
  <path fill="#154889" d="M87.813,4.111C72.8,4.111,60.63,12.583,60.63,23.034S72.8,41.958,87.813,41.958,115,33.485,115,23.034,102.826,4.111,87.813,4.111ZM54.369,56.965c0-10.451-12.17-18.924-27.183-18.924S0,46.513,0,56.965s12.17,18.924,27.183,18.924S54.369,67.416,54.369,56.965Zm33.792-7.015c-19.776,0-33.668-13.776-33.668-26.677S68.769,0,87.364,0H26.838C15.565,0,6.427,6.723,6.427,15.022s9.139,15.027,20.412,15.027c19.776,0,33.668,13.776,33.668,26.678S46.23,80,27.635,80H88.161c11.273,0,20.412-6.728,20.412-15.027S99.434,49.949,88.161,49.949Z"/>
</svg>
