<svg xmlns="http://www.w3.org/2000/svg" viewBox="0 0 28 28">
	<path d="M14,3C7.9,3,3,7.9,3,14c0,6.1,4.9,11,11,11s11-4.9,11-11C25,7.9,20.1,3,14,3z M14,23c-5,0-9-4-9-9s4-9,9-9s9,4,9,9S19,23,14,23z"/>
	<polygon points="12.4,16.4 9.4,13.3 8,14.7 12.4,19.2 19.8,11.8 18.4,10.4"/>
</svg>
